Advanced Uses • npi
…
codes <- c(90210, 90211, 90212)

zip_3 <- codes %>% 
  purrr::map(., ~ npi_search(postal_code  = .)) %>% 
  dplyr::bind_rows() 
#> 10 records requested
#> Requesting records 0-10...
#> 10 records requested
#> Requesting records 0-10...
#> 10 records requested
#> Requesting records 0-10...

npi_flatten(zip_3)
#> # A tibble: 104 × 47
#>    npi      basic_organization_n…¹ basic_organizational…² basic_enumeration_date
#>    <chr>    <chr>                  <chr>                  <chr>                 
#>  1 1063157… 991 CLYDE AVENUE OPCO… NO                     2022-04-28            
#>  2 1063157… 991 CLYDE AVENUE OPCO… NO                     2022-04-28            
#>  3 1073703… A R T REPRODUCTIVE CE… NO                     2007-07-25            
#>  4 1073703… A R T REPRODUCTIVE CE… NO                     2007-07-25            
#>  5 1154507… AARON M. PERLMUTTER, … NO                     2008-01-11            
#>  6 1154507… AARON M. PERLMUTTER, … NO                     2008-01-11            
#>  7 1154507… AARON M. PERLMUTTER, … NO                     2008-01-11            
#>  8 1154507… AARON M. PERLMUTTER, … NO                     2008-01-11            
#>  9 1154507… AARON M. PERLMUTTER, … NO                     2008-01-11            
#> 10 1154507… AARON M. PERLMUTTER, … NO                     2008-01-11            
#> # ℹ 94 more rows
#> # ℹ abbreviated names: ¹​basic_organization_name, ²​basic_organizational_subpart
#> # ℹ 43 more variables: basic_last_updated <chr>, basic_status <chr>,
#> #   basic_authorized_official_first_name <chr>,
#> #   basic_authorized_official_last_name <chr>,
#> #   basic_authorized_official_middle_name <chr>,
#> #   basic_authorized_official_telephone_number <chr>, …
…
