Introduction to npi • npi
…
Visit the function’s help page via ?npi_search after installing and loading the package for more details.

Increasing number of records returned

The limit argument of npi_search() lets you set the maximum records to return from 1 to 1200 inclusive, defaulting to 10 records if no value is specified.

nyc_25 <- npi_search(city = "New York City", limit = 25)
#> 25 records requested
#> Requesting records 0-25...
nyc_25
#> # A tibble: 25 × 11
#>    npi    enumeration_type basic    other_names identifiers taxonomies addresses
#>  * <chr>  <chr>            <list>   <list>      <list>      <list>     <list>   
#>  1 12658… Individual       <tibble> <tibble>    <tibble>    <tibble>   <tibble> 
#>  2 16796… Individual       <tibble> <tibble>    <tibble>    <tibble>   <tibble> 
#>  3 14873… Individual       <tibble> <tibble>    <tibble>    <tibble>   <tibble> 
#>  4 15889… Individual       <tibble> <tibble>    <tibble>    <tibble>   <tibble> 
#>  5 16297… Individual       <tibble> <tibble>    <tibble>    <tibble>   <tibble> 
#>  6 16391… Individual       <tibble> <tibble>    <tibble>    <tibble>   <tibble> 
#>  7 14579… Individual       <tibble> <tibble>    <tibble>    <tibble>   <tibble> 
#>  8 11842… Individual       <tibble> <tibble>    <tibble>    <tibble>   <tibble> 
#>  9 18913… Individual       <tibble> <tibble>    <tibble>    <tibble>   <tibble> 
#> 10 11842… Individual       <tibble> <tibble>    <tibble>    <tibble>   <tibble> 
#> # ℹ 15 more rows
#> # ℹ 4 more variables: practice_locations <list>, endpoints <list>,
#> #   created_date <dttm>, last_updated_date <dttm>

When using npi_search(), searches with greater than 200 records (for example 300 records) may result in multiple API calls. This is because the API itself returns up to 200 records per request, but allows previously requested records to be skipped. npi_search() will automatically make additional API calls up to the API’s limit of 1200 records for a unique set of query parameter values, and will still return a single tibble. However, to save time, the function only makes additional requests if needed. For example, if you request 1200 records, and 199 are returned in the first request, then the function does not need to make a second request because there are no more records to return.

nyc_300 <- npi_search(city = "New York City", limit = 300)
#> 300 records requested
#> Requesting records 0-200...
#> Requesting records 200-300...
nyc_300
#> # A tibble: 300 × 11
#>    npi    enumeration_type basic    other_names identifiers taxonomies addresses
#>  * <chr>  <chr>            <list>   <list>      <list>      <list>     <list>   
#>  1 12658… Individual       <tibble> <tibble>    <tibble>    <tibble>   <tibble> 
#>  2 16796… Individual       <tibble> <tibble>    <tibble>    <tibble>   <tibble> 
#>  3 14873… Individual       <tibble> <tibble>    <tibble>    <tibble>   <tibble> 
#>  4 15889… Individual       <tibble> <tibble>    <tibble>    <tibble>   <tibble> 
#>  5 16297… Individual       <tibble> <tibble>    <tibble>    <tibble>   <tibble> 
#>  6 16391… Individual       <tibble> <tibble>    <tibble>    <tibble>   <tibble> 
#>  7 14579… Individual       <tibble> <tibble>    <tibble>    <tibble>   <tibble> 
#>  8 11842… Individual       <tibble> <tibble>    <tibble>    <tibble>   <tibble> 
#>  9 18913… Individual       <tibble> <tibble>    <tibble>    <tibble>   <tibble> 
#> 10 11842… Individual       <tibble> <tibble>    <tibble>    <tibble>   <tibble> 
#> # ℹ 290 more rows
#> # ℹ 4 more variables: practice_locations <list>, endpoints <list>,
#> #   created_date <dttm>, last_updated_date <dttm>
…
Additionally, users can flatten all the list columns using npi_flatten().

npi_flatten(nyc)
#> # A tibble: 28 × 56
#>    npi       basic_first_name basic_last_name basic_sole_proprietor basic_gender
#>    <chr>     <chr>            <chr>           <chr>                 <chr>       
#>  1 11842447… ABDULLAH         ALANAZI         NO                    M           
#>  2 11842447… ABDULLAH         ALANAZI         NO                    M           
#>  3 11842981… MRINALINI        ALLA            NO                    F           
#>  4 11842981… MRINALINI        ALLA            NO                    F           
#>  5 12658296… MARK             ABROMS          NO                    M           
#>  6 12658296… MARK             ABROMS          NO                    M           
#>  7 14579269… MAHMOOD          AL-ORPHALY      NO                    M           
#>  8 14579269… MAHMOOD          AL-ORPHALY      NO                    M           
#>  9 14873414… RAKSHEETH        AGARWAL         NO                    M           
#> 10 14873414… RAKSHEETH        AGARWAL         NO                    M           
#> # ℹ 18 more rows
#> # ℹ 51 more variables: basic_enumeration_date <chr>, basic_last_updated <chr>,
#> #   basic_certification_date <chr>, basic_status <chr>,
#> #   basic_middle_name <chr>, basic_credential <chr>, basic_name_prefix <chr>,
#> #   basic_name_suffix <chr>, other_names_type <chr>, other_names_code <chr>,
#> #   other_names_first_name <chr>, other_names_last_name <chr>,
#> #   other_names_middle_name <chr>, other_names_prefix <chr>, …
…
